Analysis I – CHA Statistics in R
…
    Published

      February 17, 2023

helping <- read_csv("data/altruism_full.csv")

helping <- helping |>
    mutate(
        status = factor(status, levels = c("low", "high")),
        sex = factor(sex)
    )

helping |> print()

# A tibble: 168 × 6
     id status sex    empathy public_sc helping
  <dbl> <fct>  <fct>    <dbl>     <dbl>   <dbl>
1     1 high   female    58.1      88.3   33.8 
2     2 low    female    43.9      29.8   63.8 
3     3 low    female    76.8      80     61.0 
4     6 high   male      42.6      45.2    1.23
5     8 low    male      80.6      52     20.8 
6     9 high   male      44.2      69.2    7.61
# … with 162 more rows
…
