ANOVA – CHA Statistics in R
…
newborn_wide <- newborn |>
    pivot_wider(names_from = "language", values_from = "rate") |>
    mutate(diff = native - foreign)
newborn_wide |> print()

# A tibble: 30 x 4
  participant native foreign   diff
  <fct>        <dbl>   <dbl>  <dbl>
1 1             29.0    20.1  8.95 
2 2             29.5    31.6 -2.11 
3 3             50.9    53.7 -2.81 
4 4             55.2    47.7  7.44 
5 5             26.8    25.9  0.970
6 6             45.1    37.6  7.57 
# ... with 24 more rows
…
