CHA Statistics in R - Base R
…
cps <- mosaicData::CPS85 # data.frame
cps
#   wage educ race sex hispanic south married exper union age   sector
# 1  9.0   10    W   M       NH    NS Married    27   Not  43    const
# 2  5.5   12    W   M       NH    NS Married    20   Not  38    sales
# 3  3.8   12    W   F       NH    NS  Single     4   Not  22    sales
# 4 10.5   12    W   F       NH    NS Married    29   Not  47 clerical
# 5 15.0   12    W   M       NH    NS Married    40 Union  58    const
# 6  9.0   16    W   F       NH    NS Married    27   Not  49 clerical
...

cps_tibble <- as_tibble(cps)
cps_tibble
# # A tibble: 534 × 11
#    wage  educ race  sex   hispanic south married exper union   age sector  
#   <dbl> <int> <fct> <fct> <fct>    <fct> <fct>   <int> <fct> <int> <fct>   
# 1   9      10 W     M     NH       NS    Married    27 Not      43 const   
# 2   5.5    12 W     M     NH       NS    Married    20 Not      38 sales   
# 3   3.8    12 W     F     NH       NS    Single      4 Not      22 sales   
# 4  10.5    12 W     F     NH       NS    Married    29 Not      47 clerical
# 5  15      12 W     M     NH       NS    Married    40 Union    58 const   
# 6   9      16 W     F     NH       NS    Married    27 Not      49 clerical
# # … with 528 more rows
…
