CHA Stats in R - Case Study 2
…
act <- read_csv("howell/ACT.csv")
act

# A tibble: 50 × 12
      id State   Expend PTratio Salary PctSAT Verbal  Math   SAT PctACT   ACT
   <dbl> <chr>    <dbl>   <dbl>  <dbl>  <dbl>  <dbl> <dbl> <dbl>  <dbl> <dbl>
 1     1 Alabama   4.40    17.2   31.1      8    491   538  1029     61  20.2
 2     2 Alaska    8.96    17.6   48.0     47    445   489   934     32  21  
 3     3 Arizona   4.78    19.3   32.2     27    448   496   944     27  21.1
 4     4 Ark       4.46    17.1   28.9      6    482   523  1005     66  20.3
 5     5 Calif     4.99    24     41.1     45    417   485   902     11  21  
 6     6 Col       5.44    18.4   34.6     29    462   518   980     62  21.5
 7     7 Conn      8.82    14.4   50.0     81    431   477   908      3  21.7
 8     8 Del       7.03    16.6   39.1     68    429   468   897      3  21  
 9     9 Florida   5.72    19.1   32.6     48    420   469   889     36  20.7
10    10 Georgia   5.19    16.3   32.3     65    406   448   854     16  20.2
# ℹ 40 more rows
# ℹ 1 more variable: LogPctSAT <dbl>
…
