CHA Stats in R - Case Study 3
…
nels <- read_csv("data/nels88_sample.csv")
nels <- nels |> 
    select(grades = ffugrad, pared = bypared, hw_in = f1s36a1, hw_out = f1s36a2, prev = bytests)
nels

# A tibble: 300 × 5
   grades pared hw_in hw_out  prev
    <dbl> <dbl> <dbl>  <dbl> <dbl>
 1   4.33     3     1      0  56.4
 2   8        5     1      2  58.4
 3   6.5      4     0      2  44.4
 4   7.33     6     3      2  67.4
 5   6        2     3      2  50.7
 6   4        3     1     NA  46.0
 7   6.5      6     1      7  62.4
 8   4.33     2     1      2  46.0
 9   3.5      2     3      1  46.3
10   6.5      3     7      5  62.4
# ℹ 290 more rows
…
