CHA Stats in R - Case Study 1
…
library(haven)
maternal <- read_spss("howell/maternal_care.sav")
maternal

# A tibble: 92 × 4
   FAMID Esteem MatCare Efficacy
   <dbl>  <dbl>   <dbl>    <dbl>
 1     1   3.83    2.58      3.7
 2     2   3.5     2.83      3.4
 3     4   4       3.17      3.8
 4     8   4       3.75      3.9
 5     9   4       3.58      3.9
 6    11   3.33    3.67      3.7
 7    12   3.5     3.25      3.8
 8    13   3.67    3.75      3.5
 9    15   1.83    3.17      3.1
10    16   2.83    2.67      3.5
# ℹ 82 more rows
…
