CHA Statistics in R - Categorical IVs
…
Attitude toward abortion (ATA)

종교에 따른 낙태에 대한 (긍정적) 태도의 차이

종교: 개신교, 카톡릭, 유대교, 기타

Data: c08e01dt.csv

ata <- read_csv("data/c08e01dt.csv")
ata
ggplot(ata, aes(x = rel, y = ata)) +
    geom_boxplot(fill = "white") +
    geom_jitter(width= .1, size = 2, color = "orangered")

# A tibble: 36 × 2
   rel          ata
   <chr>      <dbl>
 1 Catholic      61
 2 Other         78
 3 Protestant    47
 4 Catholic      65
 5 Catholic      45
 6 Other        106
 7 Protestant   120
 8 Catholic      49
 9 Other         45
10 Other         62
# ℹ 26 more rows
…
rel을 factor로 변환; 순서를 고려해서

Protestant를 reference group으로 지정하기 위해 첫번째 level로 지정

ata <- ata |> 
    mutate(rel = factor(rel, levels = c("Protestant", "Catholic", "Jewish", "Other")))

R에서 기본적으로 factor는 dummy coding으로 변환

실제 내부적으로 어떻게 변환되는지 확인해보면,

model.matrix(~ rel, data = ata) |> bind_cols(ata["rel"]) # bind two columns

# A tibble: 36 × 5
   `(Intercept)` relCatholic relJewish relOther rel       
           <dbl>       <dbl>     <dbl>    <dbl> <fct>     
 1             1           1         0        0 Catholic  
 2             1           0         0        1 Other     
 3             1           0         0        0 Protestant
 4             1           1         0        0 Catholic  
 5             1           1         0        0 Catholic  
 6             1           0         0        1 Other     
 7             1           0         0        0 Protestant
 8             1           1         0        0 Catholic  
 9             1           0         0        1 Other     
10             1           0         0        1 Other     
# ℹ 26 more rows
…
altruism <- read_csv("data/c08e02dt.csv")
altruism
altruism |> 
  ggplot(aes(x = city, y = altruism)) +
  geom_boxplot()

# A tibble: 150 × 5
   altruism   ses neuroticism area       city    
      <dbl> <dbl>       <dbl> <chr>      <chr>   
 1     69.1  66.7        61.0 small_town non-city
 2     56.2  58.0        73.6 small_town non-city
 3     65.6  36.3        41.2 small_town non-city
 4     65.8  63.8        55.9 small_town non-city
 5     63.1  46.1        46.4 small_town non-city
 6     50.6  42.2        58.2 small_town non-city
 7     63.5  54.4        54.6 small_town non-city
 8     69.1  26.2        47.5 small_town non-city
 9     69.9  50.6        59.0 small_town non-city
10     49.0  31.9        49.0 small_town non-city
# ℹ 140 more rows
…
우선, 이전 분석에서처럼 관심이 연차(time)의 연봉에 대한 효과에 있다면, 나머지 변수들은 모두 고정(통제)시켜 분석해보고 그 의미를 해석해보세요.

각 부서별(depart)로 임금의 차이가 있는가에 대한 분석을 하고자 하는데 연차(time)와 논문수(pub), 성별(sex)를 고려해서 분석. 즉, 연차와 논문수, 성별을 고정한 후, 또는 그들의 효과를 제거 혹은 통제하고자 함.

성별(sex)에 따른 임금의 차이가 있는가에 대한 분석을 하고자 하는데 연차(time)와 논문수(pub), 부서(depart)를 고려해서 분석. 즉, 연차와 논문수, 부서을 고정한 후, 또는 그들의 효과를 제거 혹은 통제하고자 함.

분석하면서 변수들의 효과에 대한 의미를 새기면서 분석을 해보세요.

acad3 <- read_csv("data/c0904dt.csv")
acad3 <- acad3 |> 
    mutate(depart = factor(depart, labels = c("psych", "soc", "hist")),
           sex = factor(sex, labels = c("male", "female")))
acad3

# A tibble: 150 × 5
   depart   pub  time salary sex   
   <fct>  <dbl> <dbl>  <dbl> <fct> 
 1 soc       16     3 56465. male  
 2 soc       25     7 92044. female
 3 soc       16     2 48980. male  
 4 soc       24     1 53239. male  
 5 soc       24     8 98948. female
 6 soc       26    14 64782. female
 7 soc       39     5 91652. female
 8 soc       16     1 32833. female
 9 soc       26    10 79231. female
10 soc       23    11 77154. male  
# ℹ 140 more rows
…
