Diagnostics – CHA Statistics in R
…
women: Percentage of incumbents who are women.

prestige: Pineo-Porter prestige score for occupation, from a social survey conducted in the mid-1960s.

census: Canadian Census occupational code.

type: Type of occupation. A factor with levels (note: out of order): bc, Blue Collar; prof, Professional, Managerial, and Technical; wc, White Collar.

library(car)

Prestige <- Prestige |> as_tibble() |> 
  mutate(type = factor(type, levels = c("bc", "wc", "prof")))
Prestige

# A tibble: 102 × 6
   education income women prestige census type 
       <dbl>  <int> <dbl>    <dbl>  <int> <fct>
 1      13.1  12351 11.2      68.8   1113 prof 
 2      12.3  25879  4.02     69.1   1130 prof 
 3      12.8   9271 15.7      63.4   1171 prof 
 4      11.4   8865  9.11     56.8   1175 prof 
 5      14.6   8403 11.7      73.5   2111 prof 
 6      15.6  11030  5.13     77.6   2113 prof 
 7      15.1   8258 25.6      72.6   2133 prof 
 8      15.4  14163  2.69     78.1   2141 prof 
 9      14.5  11377  1.03     73.1   2143 prof 
10      14.6  11023  0.94     68.8   2153 prof 
# ℹ 92 more rows
…
high-leverage points: 예측변수들의 공간에서 중심으로부터 멀리 떨어진 관측치

influential points: outlier이면서 high-leverage point인 관측치

우선, 위에서 다룬 add-variable plots를 통해서 두 변수의 joint로써 influential points를 찾을 수 있음.

다음은 각 변수들 내에서의 influential points에 관한 진단임.

예제: Duncan 데이터셋

Duncan <- Duncan |> as_tibble()
Duncan

# A tibble: 45 × 4
   type  income education prestige
   <fct>  <int>     <int>    <int>
 1 prof      62        86       82
 2 prof      72        76       83
 3 prof      75        92       90
 4 prof      55        90       76
 5 prof      64        86       90
 6 prof      21        84       87
 7 prof      64        93       93
 8 prof      80       100       90
 9 wc        67        87       52
10 prof      72        86       88
# ℹ 35 more rows
…
