CHA Stats in R - Interaction Effects
…
이 때, 운동이 moderator로 작용하는 moderating effect (조절효과)를 가지는지 검증.

통계적으로는 나이과 운동기간이 서로 상호작용(interact)하여 지구력에 영향을 미치는 것으로 나타남.

Data: c07e01dt

endurance: the number of minutes of sustained jogging on a treadmill

exercise: the number of years of vigorous physical exercise

acad2 <- read_csv('cohen/data/c07e01dt.csv')
acad2

# A tibble: 245 × 3
     age exercise endurance
   <dbl>    <dbl>     <dbl>
 1    60       10        18
 2    40        9        36
 3    29        2        51
 4    47       10        18
 5    48        9        23
 6    42        6        30
 7    55        8         8
 8    43       19        40
 9    39        9        28
10    51       14        15
# ℹ 235 more rows
…
