CHA Statistics in R - Interaction Effects
…
연구자의 관심변수에 따라 다르게 표현될 수 있음.

나이가 지구력에 미치는 부정적 영향을 운동이 완화시키는지 관심.

이 때, 운동이 moderator로 작용하는 moderating effect (조절효과)를 가지는지 검증.

통계적으로는 나이과 운동기간이 서로 상호작용(interact)하여 지구력에 영향을 미치는 것으로 나타남.

acad2 <- read_csv('cohen/data/c07e01dt.csv')
acad2
library(psych)
lowerCor(acad2)

# A tibble: 245 × 3
     age exercise endurance
   <dbl>    <dbl>     <dbl>
 1    60       10        18
 2    40        9        36
 3    29        2        51
 4    47       10        18
 5    48        9        23
 6    42        6        30
 7    55        8         8
 8    43       19        40
 9    39        9        28
10    51       14        15
# ℹ 235 more rows
…
hassles <- read_csv("data/hassles.csv")
hassles

# A tibble: 56 × 3
   hassles support symptoms
     <dbl>   <dbl>    <dbl>
 1     176      10       73
 2     379      50       88
 3     126      45      118
 4     193      40       79
 5     229      40      127
 6     153      39       73
 7     214      38       93
 8     164      37       99
 9     143      36       81
10      27      36       64
# ℹ 46 more rows
…
성별 이나 실험조건/통제조건 같이 두 개의 범주를 가지는 변수와의 상호작용

직업군과 같이 세 개 이상의 범주를 가지는 변수와의 상호작용

Binary 변수와의 상호작용

예제 1: Data from the 1985 Current Population Survey (CPS85)

교육수준(educ)에 따른 임금(wage)의 증가량이 직업군에 따라 다른가?

cps <- mosaicData::CPS85 |> as_tibble()
cps

# A tibble: 534 × 11
    wage  educ race  sex   hispanic south married exper union   age sector  
   <dbl> <int> <fct> <fct> <fct>    <fct> <fct>   <int> <fct> <int> <fct>   
 1  9       10 W     M     NH       NS    Married    27 Not      43 const   
 2  5.5     12 W     M     NH       NS    Married    20 Not      38 sales   
 3  3.8     12 W     F     NH       NS    Single      4 Not      22 sales   
 4 10.5     12 W     F     NH       NS    Married    29 Not      47 clerical
 5 15       12 W     M     NH       NS    Married    40 Union    58 const   
 6  9       16 W     F     NH       NS    Married    27 Not      49 clerical
 7  9.57    12 W     F     NH       NS    Married     5 Union    23 service 
 8 15       14 W     M     NH       NS    Single     22 Not      42 sales   
 9 11        8 W     M     NH       NS    Married    42 Not      56 manuf   
10  5       12 W     F     NH       NS    Married    14 Not      32 sales   
# ℹ 524 more rows
…
예제 2: 상대방의 사회적 지위에 따른 이타성의 차이

실험조건: 수혜자의 사회적 지위가 high status vs. low status

통제변수: 돕는 사람의 공감능력

helping <- read_csv("data/altru.csv")
helping

# A tibble: 170 × 3
   helping empathy status
     <dbl>   <dbl> <chr> 
 1   45.5     58.1 low   
 2   73.4     43.9 high  
 3   73.6     76.8 high  
 4    5.43    42.6 low   
 5   29.5     80.6 high  
 6   24.2     44.2 low   
 7   68.6     77.6 low   
 8   46.5     94.2 low   
 9    3.76    87.3 high  
10   36.0     57.9 high  
# ℹ 160 more rows
…
3개 이상의 범주를 가지는 변수와의 상호작용

Data: c0904dt2.csv

acad3 <- read_csv("data/c0904dt2.csv")
acad3

# A tibble: 150 × 5
   depart    pub  time salary sex   
   <chr>   <dbl> <dbl>  <dbl> <chr> 
 1 anthrop    16     3 56465. female
 2 anthrop    25     7 92044. male  
 3 anthrop    16     2 48980. female
 4 anthrop    24     1 53239. female
 5 anthrop    24     8 98948. male  
 6 anthrop    26    14 64782. male  
 7 anthrop    39     5 91652. male  
 8 anthrop    16     1 32833. male  
 9 anthrop    26    10 79231. male  
10 anthrop    23    11 77154. female
# ℹ 140 more rows
…
B. 다음 데이터는 TV 시청시간(tv)과 개인적인 능력(ability)이 학생들의 학업성취도(achieve)에 미치는 영향을 알아보기 위한 연구의 일부입니다.

Source: Multiple Regression and Beyond (3e) by Timothy Z. Keith

Data: tv_ability.csv

TV 시청시간(tv)이 학업성취도(achieve)에 미치는 부정적인 영향이 개인적인 능력(ability)에 따라 차등적으로 발생한다는 가설을 테스트하기 위한 분석을 해보세요. 즉, 개인적인 능력이 moderator가 되는지를 알아보세요.

SES(ses) 변수를 통제할 필요성이 있는데 살펴보고, 통제한 경우와 하지 않은 경우를 비교해보세요.

tv <- read_csv("data/tv_ability.csv")
tv

# A tibble: 500 × 4
     ses ability    tv achieve
   <dbl>   <dbl> <dbl>   <dbl>
 1 -0.2       96     3      41
 2  1.15     107     4      55
 3  0.1       97     2      46
 4 -1.51      84     5      38
 5  1.87     116     1      56
 6  1.15     102     2      42
 7 -1.27      97     7      44
 8 -0.93      95     5      55
 9 -0.37      87     5      42
10 -1.98      85     6      40
# ℹ 490 more rows
…
