CHA Stats in R - Correlation/Simple Regression
…
이 모형에 의한 예측값들(pred)과 잔차(resid)들은

# A tibble: 30 × 4
      x     y  pred  resid
  <int> <dbl> <dbl>  <dbl>
1     1  4.20  6.27 -2.07 
2     1  7.51  6.27  1.24 
3     1  2.13  6.27 -4.15 
4     2  8.99  8.32  0.665
5     2 10.2   8.32  1.92 
6     2 11.3   8.32  2.97 
7     3  7.36 10.4  -3.02 
8     3 10.5  10.4   0.130
# … with 22 more rows
…
# A tibble: 15 × 3
   time  pubs salary
  <dbl> <dbl>  <dbl>
1     3    18  51876
2     6     3  54511
3     3     2  53425
4     8    17  61863
5     9    11  52926
6     6     6  47034
# … with 9 more rows
…
includes 550 older adults age 80 to 97 years.

Cognition was assessed by the Information Test, a measure of general world knowledge (i.e., crystallized intelligence; range = 0 to 44)

demgroup 1: those who will not be diagnosed with dementia (none group = 1; 72.55%),

demgroup 2: those who will eventually be diagnosed with dementia later in the study (future group = 2; 19.82%)

demgroup 3: those who already have been diagnosed with dementia (current group = 3; 7.64%)

cognition <- read_csv("data/spss_chapter2.csv")
cognition |> print()

# A tibble: 550 × 6
  PersonID cognition   age  grip sexMW demgroup
     <dbl>     <dbl> <dbl> <dbl> <dbl>    <dbl>
1        1        23  92.6     9     1        1
2        2        24  91.8    11     0        2
3        3        29  92.6    12     0        1
4        4        16  94.4     6     1        1
5        5        27  85.8     9     1        1
6        6        37  83.1    11     0        1
# … with 544 more rows
…
변수를 정규화해도 사실상 중요한 통계치는 변화하지 않음; 상관계수, \(R^2\), \(p\) value 등

좀 더 일반적으로 linear transform에 의해서 변하지 않음; 온도 C/F

반면, 주어진 샘플의 평균과 표준편차를 사용하므로 샘플마다 변동이 생길 수 있음을 인지해야 함.

 cognition <- cognition |>
     select(cog_std = cognition, grip_std = grip) |>
     scale() |>  # standardize 함수
     bind_cols(cognition)  # column bind: 열 방향으로 두 데이터프레임을 붙힘

cognition |> print()

# A tibble: 550 × 8
  cog_std grip_std PersonID cognition   age  grip sexMW demgroup
    <dbl>    <dbl>    <dbl>     <dbl> <dbl> <dbl> <dbl>    <dbl>
1 -0.166   -0.0378        1        23  92.6     9     1        1
2 -0.0748   0.633         2        24  91.8    11     0        2
3  0.380    0.968         3        29  92.6    12     0        1
4 -0.803   -1.04          4        16  94.4     6     1        1
5  0.198   -0.0378        5        27  85.8     9     1        1
6  1.11     0.633         6        37  83.1    11     0        1
# … with 544 more rows
…
