CHA Stats in R - Repeated ANOVA
…
      February 17, 2023

Newborn Language

newborn <- read.csv("data/newborn.csv")
newborn <- newborn |>
    mutate(
        participant = factor(participant),
        language = factor(language)
    )
newborn |>
    as_tibble() |>
    print()

# A tibble: 60 x 3
  participant language  rate
  <fct>       <fct>    <dbl>
1 1           native    29.0
2 1           foreign   20.1
3 2           native    29.5
4 2           foreign   31.6
5 3           native    50.9
6 3           foreign   53.7
# i 54 more rows

# wide format
newborn_wide <- newborn |>
    pivot_wider(names_from = "language", values_from = "rate") |>
    mutate(diff = native - foreign)
newborn_wide |> print()

# A tibble: 30 x 4
  participant native foreign   diff
  <fct>        <dbl>   <dbl>  <dbl>
1 1             29.0    20.1  8.95 
2 2             29.5    31.6 -2.11 
3 3             50.9    53.7 -2.81 
4 4             55.2    47.7  7.44 
5 5             26.8    25.9  0.970
6 6             45.1    37.6  7.57 
# i 24 more rows
…
    Paired t-test

data:  rate by language
t = -5.3138, df = 29, p-value = 1.06e-05
alternative hypothesis: true mean difference is not equal to 0
95 percent confidence interval:
 -6.264775 -2.782559
sample estimates:
mean difference 
      -4.523667 

newborn_wide |> print()

# A tibble: 30 x 4
  participant native foreign   diff
  <fct>        <dbl>   <dbl>  <dbl>
1 1             29.0    20.1  8.95 
2 2             29.5    31.6 -2.11 
3 3             50.9    53.7 -2.81 
4 4             55.2    47.7  7.44 
5 5             26.8    25.9  0.970
6 6             45.1    37.6  7.57 
# i 24 more rows
…
Bilingual data

bilingual <- read_csv("data/bilingual.csv")
bilingual |> print()

# A tibble: 120 x 5
   subj language  age         gender   mlu
  <dbl> <chr>     <chr>       <chr>  <dbl>
1     1 school    preschool   F       3.06
2     1 school    firstgrade  F       3.63
3     1 school    secondgrade F       2.71
4     1 home.only preschool   F       3.71
5     1 home.only firstgrade  F       4.70
6     1 home.only secondgrade F       4.31
# i 114 more rows

bilingual <- bilingual |>
    mutate(
        subj = factor(subj),
        age = factor(age, levels = c("preschool", "firstgrade", "secondgrade")),
        gender = factor(gender),
        language = factor(language)
    )

bilingual_wide <- bilingual |>
    pivot_wider(names_from = "age", values_from = "mlu")
bilingual_wide |> print()

# A tibble: 40 x 6
  subj  language  gender preschool firstgrade secondgrade
  <fct> <fct>     <fct>      <dbl>      <dbl>       <dbl>
1 1     school    F           3.06       3.63        2.71
2 1     home.only F           3.71       4.70        4.31
3 2     school    F           3.87       4.60        7.39
4 2     home.only F           3.08       4.33        5.50
5 3     school    F           3.11       3.51        4.00
6 3     home.only F           2.97       2.91        3.52
# i 34 more rows
…
Standardized parameters were obtained by fitting the model on a standardized
version of the dataset. 95% Confidence Intervals (CIs) and p-values were
computed using a Wald t-distribution approximation.

Linear models and linear mixed effects models in R with linguistic applications

By Bodo Winter

politeness <- read_csv("data/politeness_data.csv")

politeness |> print()

# A tibble: 84 x 5
  subject gender scenario attitude frequency
  <chr>   <chr>     <dbl> <chr>        <dbl>
1 F1      F             1 pol           213.
2 F1      F             1 inf           204.
3 F1      F             2 pol           285.
4 F1      F             2 inf           260.
5 F1      F             3 pol           204.
6 F1      F             3 inf           287.
# i 78 more rows
…
