CHA Statistics in R - Report
…
    Author

             Sungkyun Cho 

    Published

      February 17, 2023

acad3 <- read_csv('Cohen/data/c0904dt.csv') |>  
    rename_with(str_to_lower) |>  
    mutate(depart = factor(depart, labels = c("psych", "soc", "hist")),
           sex = factor(sex, labels = c("male", "female")))
acad3

# A tibble: 150 × 5
   depart   pub  time salary sex   
   <fct>  <dbl> <dbl>  <dbl> <fct> 
 1 psych     16     3 56465. female
 2 psych     25     7 92044. male  
 3 psych     16     2 48980. female
 4 psych     24     1 53239. female
 5 psych     24     8 98948. male  
 6 psych     26    14 64782. male  
 7 psych     39     5 91652. male  
 8 psych     16     1 32833. male  
 9 psych     26    10 79231. male  
10 psych     23    11 77154. female
# ℹ 140 more rows
…
