CHA Stats in R - Tidyverse
…
      February 17, 2023

Inspecting data

함수들: print(), glimpse(), summary(), count()

() 안에 들어가는 것을 argument라고 부름

library(tidyverse)

cps <- as_tibble(mosaicData::CPS85) # mosaicData package의 CPS85 데이터셋
print(cps) # print 생략!

# A tibble: 534 × 11
   wage  educ race  sex   hispanic south married exper union   age sector  
  <dbl> <int> <fct> <fct> <fct>    <fct> <fct>   <int> <fct> <int> <fct>   
1   9      10 W     M     NH       NS    Married    27 Not      43 const   
2   5.5    12 W     M     NH       NS    Married    20 Not      38 sales   
3   3.8    12 W     F     NH       NS    Single      4 Not      22 sales   
4  10.5    12 W     F     NH       NS    Married    29 Not      47 clerical
5  15      12 W     M     NH       NS    Married    40 Union    58 const   
6   9      16 W     F     NH       NS    Married    27 Not      49 clerical
# … with 528 more rows

print()

강의 노트에서 print()를 쓰는 것은 jupyter notebook에서 data frame을 표시하는 방식때문이므로 무시하셔도 됩니다.

보통 print()없이 데이터 프레임을 살펴보지만, print()을 이용하면, 표시되는 방식을 조정해서 볼 수 있음.

print(cps, n = 3) # 처음 3개 행

# A tibble: 534 × 11
   wage  educ race  sex   hispanic south married exper union   age sector
  <dbl> <int> <fct> <fct> <fct>    <fct> <fct>   <int> <fct> <int> <fct> 
1   9      10 W     M     NH       NS    Married    27 Not      43 const 
2   5.5    12 W     M     NH       NS    Married    20 Not      38 sales 
3   3.8    12 W     F     NH       NS    Single      4 Not      22 sales 
# … with 531 more rows

tip: print() 옵션

print(tibble, n = 10, width = Inf) # 10개의 rows와 모든 columns

기본 셋팅을 변경하려면

options(tibble.print_min = 10, tibble.width = Inf)

Columns/변수들이 많은 경우 화면에서 다음과 같이 축약되어 나오는데, 이를 다 보려면

print(nycflights13::flights) # nycflights13 패키지의 flights 데이터
# # A tibble: 336,776 × 19
#    year month   day dep_time sched_dep…¹ dep_d…² arr_t…³ sched…⁴ arr_d…⁵ carrier
#   <int> <int> <int>    <int>       <int>   <dbl>   <int>   <int>   <dbl> <chr>  
# 1  2013     1     1      517         515       2     830     819      11 UA     
# 2  2013     1     1      533         529       4     850     830      20 UA     
# 3  2013     1     1      542         540       2     923     850      33 AA     
# 4  2013     1     1      544         545      -1    1004    1022     -18 B6     
# 5  2013     1     1      554         600      -6     812     837     -25 DL     
# 6  2013     1     1      554         558      -4     740     728      12 UA     
# # … with 336,770 more rows, 9 more variables: flight <int>, tailnum <chr>,
# #   origin <chr>, dest <chr>, air_time <dbl>, distance <dbl>, hour <dbl>,
# #   minute <dbl>, time_hour <dttm>, and abbreviated variable names
# #   ¹​sched_dep_time, ²​dep_delay, ³​arr_time, ⁴​sched_arr_time, ⁵​arr_delay

print(nycflights13::flights, n = 3, width = Inf) # 가로 열의 개수: Inf (모든 열)
# # A tibble: 336,776 × 19
#    year month   day dep_time sched_dep_time dep_delay arr_time sched_arr_time
#   <int> <int> <int>    <int>          <int>     <dbl>    <int>          <int>
# 1  2013     1     1      517            515         2      830            819
# 2  2013     1     1      533            529         4      850            830
# 3  2013     1     1      542            540         2      923            850
#   arr_delay carrier flight tailnum origin dest  air_time distance  hour minute
#       <dbl> <chr>    <int> <chr>   <chr>  <chr>    <dbl>    <dbl> <dbl>  <dbl>
# 1        11 UA        1545 N14228  EWR    IAH        227     1400     5     15
# 2        20 UA        1714 N24211  LGA    IAH        227     1416     5     29
# 3        33 AA        1141 N619AA  JFK    MIA        160     1089     5     40
#   time_hour          
#   <dttm>             
# 1 2013-01-01 05:00:00
# 2 2013-01-01 05:00:00
# 3 2013-01-01 05:00:00
# # … with 336,773 more rows
…
>, >=, <, <=, == (equal to), != (not equal to)

& (and) | (or)

! (not)

%in% (includes)

# 임금(wage)가 10이상인 사람들
cps |>
    filter(wage >= 10) |>
    print()

# A tibble: 184 × 11
   wage  educ race  sex   hispanic south married exper union   age sector  
  <dbl> <int> <fct> <fct> <fct>    <fct> <fct>   <int> <fct> <int> <fct>   
1  10.5    12 W     F     NH       NS    Married    29 Not      47 clerical
2  15      12 W     M     NH       NS    Married    40 Union    58 const   
3  15      14 W     M     NH       NS    Single     22 Not      42 sales   
4  11       8 W     M     NH       NS    Married    42 Not      56 manuf   
5  25.0    17 W     M     Hisp     NS    Married    18 Not      41 prof    
6  20.4    17 W     M     NH       NS    Single      3 Not      26 prof    
# … with 178 more rows

# 임금(wage)가 10이상이고 여성(F)들
cps |>
    filter(wage >= 10 & sex == "F") |>
    print()

# A tibble: 62 × 11
   wage  educ race  sex   hispanic south married exper union   age sector  
  <dbl> <int> <fct> <fct> <fct>    <fct> <fct>   <int> <fct> <int> <fct>   
1  10.5    12 W     F     NH       NS    Married    29 Not      47 clerical
2  11.2    17 NW    F     NH       NS    Married    32 Not      55 clerical
3  25.0    17 W     F     NH       NS    Single      5 Not      28 prof    
4  12.6    17 W     F     NH       NS    Married    13 Not      36 manag   
5  11.7    16 W     F     NH       NS    Single     42 Not      64 clerical
6  12.5    15 W     F     NH       NS    Married     6 Not      27 clerical
# … with 56 more rows

# 간부급(management)과 전문직(professional)에 종사하는 사람들
cps |>
    filter(sector == "manag" | sector == "prof") |>
    print()

# A tibble: 160 × 11
   wage  educ race  sex   hispanic south married exper union   age sector
  <dbl> <int> <fct> <fct> <fct>    <fct> <fct>   <int> <fct> <int> <fct> 
1  25.0    17 W     M     Hisp     NS    Married    18 Not      41 prof  
2  20.4    17 W     M     NH       NS    Single      3 Not      26 prof  
3  10      16 W     M     Hisp     NS    Married     7 Union    29 manag 
4  15      16 NW    M     NH       NS    Married    26 Union    48 manag 
5  25.0    17 W     F     NH       NS    Single      5 Not      28 prof  
6  10      14 W     M     NH       NS    Married    22 Not      42 prof  
# … with 154 more rows

다음과 같이 편리하게 %in%을 이용하여 여러 항목을 포함하는, 즉 |와 ==를 합친 조건문을 생성

즉, include인지 판별

# A shorter way to select sectors for management or professional
cps |>
    filter(sector %in% c("manag", "prof")) |>
    print()

# A tibble: 160 × 11
   wage  educ race  sex   hispanic south married exper union   age sector
  <dbl> <int> <fct> <fct> <fct>    <fct> <fct>   <int> <fct> <int> <fct> 
1  25.0    17 W     M     Hisp     NS    Married    18 Not      41 prof  
2  20.4    17 W     M     NH       NS    Single      3 Not      26 prof  
3  10      16 W     M     Hisp     NS    Married     7 Union    29 manag 
4  15      16 NW    M     NH       NS    Married    26 Union    48 manag 
5  25.0    17 W     F     NH       NS    Single      5 Not      28 prof  
6  10      14 W     M     NH       NS    Married    22 Not      42 prof  
# … with 154 more rows
…
cps |>
    filter(sex = "F") # "==" vs. "="
cps |>
    filter(sector == "manage" | "prof") # | 전후 모두 완결된 조건문 필요

arrange()

Column의 값을 기준으로 row를 정렬

# 교육정도(educ)와 임금(wage)에 따라 오름차순으로 정렬
cps |>
    arrange(educ, wage) |>
    print(n = 10)

# A tibble: 534 × 11
    wage  educ race  sex   hispanic south married exper union   age sector 
   <dbl> <int> <fct> <fct> <fct>    <fct> <fct>   <int> <fct> <int> <fct>  
 1  3.75     2 W     M     Hisp     NS    Single     16 Not      24 service
 2  7        3 W     M     Hisp     S     Married    55 Not      64 manuf  
 3  6        4 W     M     NH       NS    Married    54 Not      64 service
 4 14        5 W     M     NH       S     Married    44 Not      55 const  
 5  3        6 W     F     Hisp     NS    Married    43 Union    55 manuf  
 6  4.62     6 NW    F     NH       S     Single     33 Not      45 manuf  
 7  5.75     6 W     M     NH       S     Married    45 Not      57 manuf  
 8  3.35     7 W     M     NH       S     Married    43 Not      56 manuf  
 9  4.5      7 W     M     Hisp     S     Married    14 Not      27 service
10  6        7 W     F     NH       S     Married    15 Not      28 manuf  
# … with 524 more rows

desc()을 이용하면 내림차순으로 정렬

# educ을 내림차순으로 정렬
cps |>
    arrange(desc(educ)) |>
    print(n = 10)

# A tibble: 534 × 11
    wage  educ race  sex   hispanic south married exper union   age sector
   <dbl> <int> <fct> <fct> <fct>    <fct> <fct>   <int> <fct> <int> <fct> 
 1 15       18 W     M     NH       NS    Married    12 Not      36 prof  
 2 14.0     18 W     F     NH       NS    Married    14 Not      38 manag 
 3 13.5     18 W     M     NH       NS    Married    14 Union    38 prof  
 4 20       18 W     F     NH       NS    Married    19 Not      43 manag 
 5  7       18 W     M     NH       NS    Married    33 Not      57 prof  
 6 11.2     18 W     M     NH       NS    Married    19 Not      43 prof  
 7  5.71    18 W     M     NH       NS    Married     3 Not      27 prof  
 8 18       18 W     M     NH       NS    Married    15 Not      39 prof  
 9 19       18 W     M     NH       NS    Single     13 Not      37 manag 
10 22.8     18 W     F     NH       NS    Single     37 Not      61 prof  
# … with 524 more rows

arrange()와 filter()를 함께 사용하여 좀 더 복잡한 문제를 해결할 수 있음

# 높은 지위의 섹터에서 일하는 사람들 중 임금이 상위에 있는 사람들
cps |>
    filter(sector == "manage" | sector == "prof") |>
    arrange(desc(wage)) |>
    print()

# A tibble: 105 × 11
   wage  educ race  sex   hispanic south married exper union   age sector
  <dbl> <int> <fct> <fct> <fct>    <fct> <fct>   <int> <fct> <int> <fct> 
1  25.0    17 W     M     Hisp     NS    Married    18 Not      41 prof  
2  25.0    17 W     F     NH       NS    Single      5 Not      28 prof  
3  25.0    17 W     M     NH       NS    Married    31 Not      54 prof  
4  25.0    16 W     F     NH       S     Single      5 Not      27 prof  
5  23.2    17 NW    F     NH       NS    Married    25 Union    48 prof  
6  22.8    18 W     F     NH       NS    Single     37 Not      61 prof  
# … with 99 more rows
…
Columns

열에 적용되는 함수들

mutate(), select(), rename()

mutate()

Columns/변수들로부터 값을 계산하여 새로운 변수를 만듦

tips <- as_tibble(reshape::tips) # reshpae 패키지 안에 tips 데이터셋
tips |> print()

# A tibble: 244 × 7
  total_bill   tip sex    smoker day   time    size
       <dbl> <dbl> <fct>  <fct>  <fct> <fct>  <int>
1       17.0  1.01 Female No     Sun   Dinner     2
2       10.3  1.66 Male   No     Sun   Dinner     3
3       21.0  3.5  Male   No     Sun   Dinner     3
4       23.7  3.31 Male   No     Sun   Dinner     2
5       24.6  3.61 Female No     Sun   Dinner     4
6       25.3  4.71 Male   No     Sun   Dinner     4
# … with 238 more rows

tips |>
    mutate(
        tip_pct = tip / total_bill * 100,
        tip_pct_per = tip_pct / size
    ) |>
    print()

# A tibble: 244 × 9
  total_bill   tip sex    smoker day   time    size tip_pct tip_pct_per
       <dbl> <dbl> <fct>  <fct>  <fct> <fct>  <int>   <dbl>       <dbl>
1       17.0  1.01 Female No     Sun   Dinner     2    5.94        2.97
2       10.3  1.66 Male   No     Sun   Dinner     3   16.1         5.35
3       21.0  3.5  Male   No     Sun   Dinner     3   16.7         5.55
4       23.7  3.31 Male   No     Sun   Dinner     2   14.0         6.99
5       24.6  3.61 Female No     Sun   Dinner     4   14.7         3.67
6       25.3  4.71 Male   No     Sun   Dinner     4   18.6         4.66
# … with 238 more rows

select()

Columns/변수를 선택

tips |>
    select(total_bill, tip, day, time) |>
    print()

# A tibble: 244 × 4
  total_bill   tip day   time  
       <dbl> <dbl> <fct> <fct> 
1       17.0  1.01 Sun   Dinner
2       10.3  1.66 Sun   Dinner
3       21.0  3.5  Sun   Dinner
4       23.7  3.31 Sun   Dinner
5       24.6  3.61 Sun   Dinner
6       25.3  4.71 Sun   Dinner
# … with 238 more rows

# tip에서 smoker까지, 그리고 size columns 선택
tips |>
    select(tip:smoker, size) |>  # select(2:4, 7)처럼 number로 선택가능
    print()

# A tibble: 244 × 4
    tip sex    smoker  size
  <dbl> <fct>  <fct>  <int>
1  1.01 Female No         2
2  1.66 Male   No         3
3  3.5  Male   No         3
4  3.31 Male   No         2
5  3.61 Female No         4
6  4.71 Male   No         4
# … with 238 more rows

# sex에서 day까지 columns은 제외하고
tips |>
    select(!sex:day) |> # !: not
    print()

# A tibble: 244 × 4
  total_bill   tip time    size
       <dbl> <dbl> <fct>  <int>
1       17.0  1.01 Dinner     2
2       10.3  1.66 Dinner     3
3       21.0  3.5  Dinner     3
4       23.7  3.31 Dinner     2
5       24.6  3.61 Dinner     4
6       25.3  4.71 Dinner     4
# … with 238 more rows

# factor 타입의 변수들만 선택: 함수를 이용
tips |>
    select(where(is.factor)) |>  # 다른 함수들: is.numeric, is.character
    print()

# A tibble: 244 × 4
  sex    smoker day   time  
  <fct>  <fct>  <fct> <fct> 
1 Female No     Sun   Dinner
2 Male   No     Sun   Dinner
3 Male   No     Sun   Dinner
4 Male   No     Sun   Dinner
5 Female No     Sun   Dinner
6 Male   No     Sun   Dinner
# … with 238 more rows
…
cps |> 
    select(wage, married) |> 
    slice(2:5) # 행을 선택

rename()

Columns의 이름을 변경

cps |>
    rename(education = educ, marital = married) |> # new = old
    print()

# A tibble: 534 × 11
   wage education race  sex   hispanic south marital exper union   age sector  
  <dbl>     <int> <fct> <fct> <fct>    <fct> <fct>   <int> <fct> <int> <fct>   
1   9          10 W     M     NH       NS    Married    27 Not      43 const   
2   5.5        12 W     M     NH       NS    Married    20 Not      38 sales   
3   3.8        12 W     F     NH       NS    Single      4 Not      22 sales   
4  10.5        12 W     F     NH       NS    Married    29 Not      47 clerical
5  15          12 W     M     NH       NS    Married    40 Union    58 const   
6   9          16 W     F     NH       NS    Married    27 Not      49 clerical
# … with 528 more rows

변수를 select할 때 동시에 이름도 바꿀 수 있음

cps |>
    select(education = educ, marital = married) |> # new = old
    print()

# A tibble: 534 × 2
  education marital
      <int> <fct>  
1        10 Married
2        12 Married
3        12 Single 
4        12 Married
5        12 Married
6        16 Married
# … with 528 more rows
…
group_by()와 summarise()의 두 함수를 함께 사용하여 가장 자주 사용하게 됨

group_by()

데이터셋을 분석을 위해 의미있는 그룹으로 나눔

다음은 성별로 데이터셋을 나눈 것인데, 실제 데이터를 수정하는 것은 아니고, 내부적으로 grouping되어 있음.

맨 위 줄에 보면 Groups:  sex [2]로 표시되어 grouped data frame임을 명시함

cps |>
    group_by(sex) |> 
    print()

# A tibble: 534 × 11
# Groups:   sex [2]
   wage  educ race  sex   hispanic south married exper union   age sector  
  <dbl> <int> <fct> <fct> <fct>    <fct> <fct>   <int> <fct> <int> <fct>   
1   9      10 W     M     NH       NS    Married    27 Not      43 const   
2   5.5    12 W     M     NH       NS    Married    20 Not      38 sales   
3   3.8    12 W     F     NH       NS    Single      4 Not      22 sales   
4  10.5    12 W     F     NH       NS    Married    29 Not      47 clerical
5  15      12 W     M     NH       NS    Married    40 Union    58 const   
6   9      16 W     F     NH       NS    Married    27 Not      49 clerical
# … with 528 more rows
…
