CHA Stats in R - Visualize
…
통계치 표현: ggstatsplot, ggpubr

Data Visualization with R by Rob Kabacoff : 적절한 밸런스

ggplot2 cheatsheet : pdf 다운로드

Basics

library(tidyverse)
library(palmerpenguins)

penguins |>
    print() # 무시

# A tibble: 344 × 8
  species island    bill_length_mm bill_depth_mm flipper_l…¹ body_…² sex    year
  <fct>   <fct>              <dbl>         <dbl>       <int>   <int> <fct> <int>
1 Adelie  Torgersen           39.1          18.7         181    3750 male   2007
2 Adelie  Torgersen           39.5          17.4         186    3800 fema…  2007
3 Adelie  Torgersen           40.3          18           195    3250 fema…  2007
4 Adelie  Torgersen           NA            NA            NA      NA NA     2007
5 Adelie  Torgersen           36.7          19.3         193    3450 fema…  2007
6 Adelie  Torgersen           39.3          20.6         190    3650 male   2007
# … with 338 more rows, and abbreviated variable names ¹​flipper_length_mm,
#   ²​body_mass_g
…
Examples

이전에 다뤘던 CPS85 데이터로 보면,

cps <- as_tibble(mosaicData::CPS85) # mosaicData package의 CPS85 데이터셋
cps |>
   print() # 생략!

# A tibble: 534 × 11
   wage  educ race  sex   hispanic south married exper union   age sector  
  <dbl> <int> <fct> <fct> <fct>    <fct> <fct>   <int> <fct> <int> <fct>   
1   9      10 W     M     NH       NS    Married    27 Not      43 const   
2   5.5    12 W     M     NH       NS    Married    20 Not      38 sales   
3   3.8    12 W     F     NH       NS    Single      4 Not      22 sales   
4  10.5    12 W     F     NH       NS    Married    29 Not      47 clerical
5  15      12 W     M     NH       NS    Married    40 Union    58 const   
6   9      16 W     F     NH       NS    Married    27 Not      49 clerical
# … with 528 more rows
…
